{
  "not_categories": {
    "statusCode": 404,
    "body": {
      "error": {
        "id": "IR",
        "code": "not_categories",
        "message": "No hay categorias."
      }
    }
  },
  "default": {
    "statusCode": 500,
    "body": {
      "error": {
        "id": "IR",
        "code": "internal_error",
        "message": "Hubo un error no identificado."
      }
    }
  }
}